{
   "abstract" : "Insert harvested links into HuNI",
   "author" : [
      "Stephen Thirlwall <stephent@stategicdata.com.au>"
   ],
   "dynamic_config" : 0,
   "generated_by" : "Minilla/v3.0.9, CPAN::Meta::Converter version 2.150010",
   "license" : [
      "perl_5"
   ],
   "meta-spec" : {
      "url" : "http://search.cpan.org/perldoc?CPAN::Meta::Spec",
      "version" : "2"
   },
   "name" : "HuNI-Pipeline-Links",
   "no_index" : {
      "directory" : [
         "t",
         "xt",
         "inc",
         "share",
         "eg",
         "examples",
         "author",
         "builder"
      ]
   },
   "prereqs" : {
      "configure" : {
         "requires" : {
            "Module::Build::Tiny" : "0.035"
         }
      },
      "develop" : {
         "requires" : {
            "Test::CPAN::Meta" : "0",
            "Test::MinimumVersion::Fast" : "0.04",
            "Test::PAUSE::Permissions" : "0.04",
            "Test::Pod" : "1.41",
            "Test::Spellunker" : "v0.2.7"
         }
      },
      "runtime" : {
         "requires" : {
            "Cpanel::JSON::XS" : "0",
            "Data::Dumper::Concise" : "0",
            "Function::Parameters" : "0",
            "Getopt::Args" : "0",
            "HTTP::Tiny" : "0.070",
            "Log::Any" : "0",
            "Moo" : "0",
            "Net::SSLeay" : "1.80",
            "Path::Tiny" : "0",
            "Text::CSV::Slurp" : "0",
            "Time::Elapsed" : "0",
            "XML::Simple" : "0",
            "perl" : "5.014000"
         }
      },
      "test" : {
         "requires" : {
            "Test::More" : "0.98"
         }
      }
   },
   "release_status" : "unstable",
   "resources" : {
      "repository" : {
         "type" : "git",
         "url" : "git://bitbucket.org/huniteam/huni-pipeline-links.git"
      }
   },
   "version" : "1.02",
   "x_contributors" : [
      "Stephen Thirlwall <stephent@strategicdata.com.au>"
   ],
   "x_serialization_backend" : "JSON::PP version 2.27300"
}
